{
    "Meutoite": {
        "template": "uniform",
        "block": {
            "name": "Metallurgy:ender.ore",
            "metadata": 1
        },
		"material": "minecraft:end_stone",
        "clusterSize": 6,
        "numClusters": 8,
        "minHeight": 40,
        "maxHeight": 75,
        "retrogen": "false",
        "biomeRestriction": "none",
        "biomes": [
            "all"
        ],
        "dimensionRestriction": "whitelist",
        "dimensions": [
            1
        ]
    },
    "Eximite": {
        "template": "uniform",
        "block": {
            "name": "Metallurgy:ender.ore",
            "metadata": 0
        },
		"material": "minecraft:end_stone",
        "clusterSize": 8,
        "numClusters": 8,
        "minHeight": 40,
        "maxHeight": 75,
        "retrogen": "false",
        "biomeRestriction": "none",
        "biomes": [
            "all"
        ],
        "dimensionRestriction": "whitelist",
        "dimensions": [
            1
        ]
    },
    "Adamantine": {
        "template": "uniform",
        "block": {
                "name": "Metallurgy:fantasy.ore",
                "metadata": 13
        },
		"material": "minecraft:cobblestone",		
        "clusterSize": 1,
        "numClusters": 2,
		"chunkChance": 10,
        "minHeight": 80,
        "maxHeight": 83,
        "retrogen": "false",
        "biomeRestriction": "none",
        "biomes": [
            "all"
        ],
        "dimensionRestriction": "whitelist",
        "dimensions": [
            -100           
        ]
    },
    "Atlarus": {
        "template": "uniform",
        "block": {
                "name": "Metallurgy:fantasy.ore",
                "metadata": 14
        },
		"material": "minecraft:cobblestone",		
        "clusterSize": 1,
        "numClusters": 2,
		"chunkChance": 1,
        "minHeight": 132,
        "maxHeight": 134,
        "retrogen": "false",
        "biomeRestriction": "none",
        "biomes": [
            "all"
        ],
        "dimensionRestriction": "whitelist",
        "dimensions": [
            -100          
        ]
    }	
 }